…
# substitute your own dataset in here
pa_data <- ecomon::read_staged(species = "calfin", form = "sf") |>
  transmute(PRESENCE = (total_m2 > 10000) |> as.numeric() |> as.factor(),
            MONTH = lubridate::month(date))

pa_data
```

    ## Simple feature collection with 24387 features and 2 fields
    ## Geometry type: POINT
    ## Dimension:     XY
    ## Bounding box:  xmin: -75.9283 ymin: 35.2033 xmax: -65.2483 ymax: 44.77
    ## Geodetic CRS:  WGS 84
    ## # A tibble: 24,387 × 3
    ##    PRESENCE MONTH           geometry
    ##  * <fct>    <dbl>        <POINT [°]>
    ##  1 0            2 (-70.6667 41.1833)
    ##  2 0            2 (-70.6667 41.0167)
    ##  3 0            2         (-71.5 41)
    ##  4 0            2 (-71.0167 40.5167)
    ##  5 0            2    (-71.5 40.2667)
    ##  6 0            2     (-71.75 40.15)
    ##  7 0            2 (-69.9667 40.2333)
    ##  8 0            2      (-70 40.0167)
    ##  9 0            2        (-69 40.25)
    ## 10 0            2         (-69 40.5)
    ## # … with 24,377 more rows
…
# input dataset for workflow
model_data
```

    ## # A tibble: 24,387 × 13
    ##      lat   lon PRESENCE MONTH Bathy_depth     Xbtm   MLD  Sbtm   SSS   SST  Tbtm
    ##    <dbl> <dbl> <fct>    <fct>       <dbl>    <dbl> <dbl> <dbl> <dbl> <dbl> <dbl>
    ##  1  41.2 -70.6 0        2            36.6 0.00244   22.7  31.0  30.9  2.87  3.12
    ##  2  41.0 -70.6 0        2            45.1 0.00249   35.8  31.1  31.0  3.20  3.33
    ##  3  41.0 -71.5 0        2            43.9 0.00460   26.8  31.4  31.2  3.94  4.46
    ##  4  40.5 -71.0 0        2            76.6 0.00380   41.2  32.5  31.3  4.23  6.95
    ##  5  40.3 -71.5 0        2            85.1 0.00733   35.3  33.4  31.4  4.54  8.73
    ##  6  40.1 -71.8 0        2            83.4 0.00531   33.9  33.6  31.4  4.69  9.09
    ##  7  40.2 -69.9 0        2            93.0 0.00169   30.0  33.8  31.3  4.22  8.74
    ##  8  40.0 -70.0 0        2           234.  0.000930  23.2  35.0  31.5  4.79  8.35
    ##  9  40.3 -69.0 0        2           113.  0.00162   22.9  34.5  31.4  4.47  9.36
    ## 10  40.5 -69.0 0        2            74.7 0.00515   30.2  32.9  31.2  4.05  6.95
    ## # … with 24,377 more rows, and 2 more variables: U <dbl>, V <dbl>
…
# list of 12 tibbles of prediction data - 1 per month
length(rcp85_2075)
```

    ## [1] 12

``` r
# can index by month number or by 3 letter abbreviation of desired month
rcp45_2055[["Oct"]]
```

    ## # A tibble: 199,783 × 6
    ##    .pred_0 .pred_1   lon   lat MONTH .pred_class
    ##      <dbl>   <dbl> <dbl> <dbl> <fct> <fct>      
    ##  1   0.825   0.175  6.20  37.0 10    0          
    ##  2   0.825   0.175  6.21  37.1 10    0          
    ##  3   0.825   0.175  6.21  37.2 10    0          
    ##  4   0.825   0.175  6.22  37.3 10    0          
    ##  5   0.825   0.175  6.22  37.5 10    0          
    ##  6   0.825   0.175  6.23  37.6 10    0          
    ##  7   0.825   0.175  6.23  37.7 10    0          
    ##  8   0.825   0.175  6.23  37.8 10    0          
    ##  9   0.809   0.191  6.24  38.0 10    0          
    ## 10   0.825   0.175  6.24  38.1 10    0          
    ## # … with 199,773 more rows
…
